risc_cpu/tb_cpu_top.vcd
$date
	Wed Mar 18 17:32:51 2026
$end
$version
	Icarus Verilog
$end
$timescale
	1ps
$end
$scope module tb_cpu_top $end
$var wire 1 ! uart_tx_pin $end
$var wire 16 " gpio_out [15:0] $end
$var wire 32 # dbg_reg_x10 [31:0] $end
$var wire 32 $ dbg_pc [31:0] $end
$var reg 1 % clk $end
$var reg 1 & rst_n $end
$var integer 32 ' cycle_cnt [31:0] $end
$var integer 32 ( fail_cnt [31:0] $end
$var integer 32 ) pass_cnt [31:0] $end
$scope module dut $end
$var wire 1 * actual_flush $end
$var wire 32 + branch_pc [31:0] $end
$var wire 1 % clk $end
$var wire 32 , dbg_pc [31:0] $end
$var wire 32 - dbg_reg_x10 [31:0] $end
$var wire 32 . dmem_addr [31:0] $end
$var wire 1 / dmem_we $end
$var wire 32 0 ex_alu_b [31:0] $end
$var wire 1 1 ex_branch_taken $end
$var wire 32 2 ex_jalr_target [31:0] $end
$var wire 1 3 ex_take_jump $end
$var wire 16 4 gpio_in [15:0] $end
$var wire 1 5 mem_is_dmem $end
$var wire 1 & rst_n $end
$var wire 1 6 uart_we $end
$var wire 32 7 wb_result [31:0] $end
$var wire 1 8 wb_reg_write $end
$var wire 32 9 wb_read_data [31:0] $end
$var wire 5 : wb_rd [4:0] $end
$var wire 32 ; wb_pc_plus4 [31:0] $end
$var wire 2 < wb_mem_to_reg [1:0] $end
$var wire 32 = wb_alu_result [31:0] $end
$var wire 1 ! uart_tx_pin $end
$var wire 1 > uart_ready $end
$var wire 32 ? periph_rdata [31:0] $end
$var wire 1 @ pc_stall $end
$var wire 32 A pc_plus4 [31:0] $end
$var wire 1 B mem_zero $end
$var wire 32 C mem_rs2_data [31:0] $end
$var wire 1 D mem_reg_write $end
$var wire 32 E mem_read_data [31:0] $end
$var wire 5 F mem_rd [4:0] $end
$var wire 32 G mem_pc_plus4 [31:0] $end
$var wire 1 H mem_mem_write $end
$var wire 2 I mem_mem_to_reg [1:0] $end
$var wire 1 J mem_mem_read $end
$var wire 1 K mem_jump $end
$var wire 1 L mem_is_uart $end
$var wire 1 M mem_is_gpio $end
$var wire 3 N mem_funct3 [2:0] $end
$var wire 32 O mem_branch_target [31:0] $end
$var wire 1 P mem_branch_taken $end
$var wire 1 Q mem_branch $end
$var wire 32 R mem_alu_result [31:0] $end
$var wire 32 S if_instr [31:0] $end
$var wire 1 T if_id_stall $end
$var wire 1 U if_id_flush $end
$var wire 32 V id_rs2_data [31:0] $end
$var wire 5 W id_rs2_addr [4:0] $end
$var wire 32 X id_rs1_data [31:0] $end
$var wire 5 Y id_rs1_addr [4:0] $end
$var wire 1 Z id_reg_write $end
$var wire 5 [ id_rd_addr [4:0] $end
$var wire 32 \ id_pc_plus4 [31:0] $end
$var wire 32 ] id_pc [31:0] $end
$var wire 7 ^ id_opcode [6:0] $end
$var wire 1 _ id_mem_write $end
$var wire 2 ` id_mem_to_reg [1:0] $end
$var wire 1 a id_mem_read $end
$var wire 1 b id_jump $end
$var wire 1 c id_jalr $end
$var wire 32 d id_instr [31:0] $end
$var wire 32 e id_imm [31:0] $end
$var wire 7 f id_funct7 [6:0] $end
$var wire 3 g id_funct3 [2:0] $end
$var wire 1 h id_ex_flush $end
$var wire 1 i id_ex_bubble $end
$var wire 1 j id_branch $end
$var wire 1 k id_alu_src $end
$var wire 2 l id_alu_op [1:0] $end
$var wire 32 m gpio_rdata [31:0] $end
$var wire 16 n gpio_out [15:0] $end
$var wire 2 o forward_b [1:0] $end
$var wire 2 p forward_a [1:0] $end
$var wire 32 q final_rdata [31:0] $end
$var wire 32 r ex_rs2_data [31:0] $end
$var wire 5 s ex_rs2 [4:0] $end
$var wire 32 t ex_rs1_data [31:0] $end
$var wire 5 u ex_rs1 [4:0] $end
$var wire 1 v ex_reg_write $end
$var wire 5 w ex_rd [4:0] $end
$var wire 32 x ex_pc_plus4 [31:0] $end
$var wire 32 y ex_pc [31:0] $end
$var wire 7 z ex_opcode [6:0] $end
$var wire 1 { ex_mem_write $end
$var wire 2 | ex_mem_to_reg [1:0] $end
$var wire 1 } ex_mem_read $end
$var wire 1 ~ ex_jump $end
$var wire 1 !" ex_jalr $end
$var wire 1 "" ex_is_lui $end
$var wire 1 #" ex_is_auipc $end
$var wire 32 $" ex_imm [31:0] $end
$var wire 32 %" ex_fwd_b [31:0] $end
$var wire 32 &" ex_fwd_a [31:0] $end
$var wire 7 '" ex_funct7 [6:0] $end
$var wire 3 (" ex_funct3 [2:0] $end
$var wire 32 )" ex_branch_target [31:0] $end
$var wire 1 *" ex_branch $end
$var wire 1 +" ex_alu_zero $end
$var wire 1 ," ex_alu_src $end
$var wire 32 -" ex_alu_result [31:0] $end
$var wire 2 ." ex_alu_op [1:0] $end
$var wire 4 /" ex_alu_ctrl [3:0] $end
$var wire 32 0" ex_alu_b_pre [31:0] $end
$var wire 32 1" ex_alu_a [31:0] $end
$var wire 32 2" dbg_rs1_data [31:0] $end
$var wire 1 3" bp_predict_taken $end
$var parameter 144 4" IMEM_HEX $end
$var parameter 32 5" UART_BPS $end
$var reg 1 6" ex_branch_cond $end
$var reg 32 7" pc [31:0] $end
$scope module u_alu $end
$var wire 32 8" a [31:0] $end
$var wire 32 9" b [31:0] $end
$var wire 1 +" zero $end
$var wire 33 :" sum [32:0] $end
$var wire 1 ;" negative $end
$var wire 33 <" diff [32:0] $end
$var wire 4 =" alu_ctrl [3:0] $end
$var parameter 4 >" ALU_ADD $end
$var parameter 4 ?" ALU_AND $end
$var parameter 4 @" ALU_APCADD $end
$var parameter 4 A" ALU_OR $end
$var parameter 4 B" ALU_PASSB $end
$var parameter 4 C" ALU_SLL $end
$var parameter 4 D" ALU_SLT $end
$var parameter 4 E" ALU_SLTU $end
$var parameter 4 F" ALU_SRA $end
$var parameter 4 G" ALU_SRL $end
$var parameter 4 H" ALU_SUB $end
$var parameter 4 I" ALU_XOR $end
$var reg 1 J" carry_out $end
$var reg 1 K" overflow $end
$var reg 32 L" result [31:0] $end
$upscope $end
$scope module u_alu_dec $end
$var wire 1 M" funct7_5 $end
$var wire 7 N" opcode [6:0] $end
$var wire 3 O" funct3 [2:0] $end
$var wire 2 P" alu_op [1:0] $end
$var parameter 4 Q" ALU_ADD $end
$var parameter 4 R" ALU_AND $end
$var parameter 4 S" ALU_APCADD $end
$var parameter 4 T" ALU_OR $end
$var parameter 4 U" ALU_PASSB $end
$var parameter 4 V" ALU_SLL $end
$var parameter 4 W" ALU_SLT $end
$var parameter 4 X" ALU_SLTU $end
$var parameter 4 Y" ALU_SRA $end
$var parameter 4 Z" ALU_SRL $end
$var parameter 4 [" ALU_SUB $end
$var parameter 4 \" ALU_XOR $end
$var parameter 7 ]" OP_R_TYPE $end
$var reg 4 ^" alu_ctrl [3:0] $end
$upscope $end
$scope module u_bp $end
$var wire 1 % clk $end
$var wire 1 1 ex_actual_taken $end
$var wire 32 _" pc [31:0] $end
$var wire 1 & rst_n $end
$var wire 4 `" update_idx [3:0] $end
$var wire 1 3" predict_taken $end
$var wire 4 a" pred_idx [3:0] $end
$var wire 32 b" ex_pc [31:0] $end
$var wire 1 *" ex_is_branch $end
$var parameter 32 c" ENTRIES $end
$var parameter 2 d" SN $end
$var parameter 2 e" ST $end
$var parameter 2 f" WN $end
$var parameter 2 g" WT $end
$var integer 32 h" i [31:0] $end
$upscope $end
$scope module u_ctrl $end
$var wire 7 i" opcode [6:0] $end
$var parameter 7 j" OP_AUIPC $end
$var parameter 7 k" OP_BRANCH $end
$var parameter 7 l" OP_I_ARITH $end
$var parameter 7 m" OP_JAL $end
$var parameter 7 n" OP_JALR $end
$var parameter 7 o" OP_LOAD $end
$var parameter 7 p" OP_LUI $end
$var parameter 7 q" OP_R_TYPE $end
$var parameter 7 r" OP_STORE $end
$var reg 2 s" alu_op [1:0] $end
$var reg 1 k alu_src $end
$var reg 1 j branch $end
$var reg 1 c jalr $end
$var reg 1 b jump $end
$var reg 1 a mem_read $end
$var reg 2 t" mem_to_reg [1:0] $end
$var reg 1 _ mem_write $end
$var reg 1 Z reg_write $end
$upscope $end
$scope module u_dbg_regfile $end
$var wire 1 % clk $end
$var wire 32 u" rd_data [31:0] $end
$var wire 5 v" rs1 [4:0] $end
$var wire 5 w" rs2 [4:0] $end
$var wire 1 & rst_n $end
$var wire 32 x" rs2_data [31:0] $end
$var wire 32 y" rs1_data [31:0] $end
$var wire 1 8 reg_write $end
$var wire 5 z" rd [4:0] $end
$var integer 32 {" i [31:0] $end
$upscope $end
$scope module u_dmem $end
$var wire 32 |" addr [31:0] $end
$var wire 1 % clk $end
$var wire 1 }" mem_read $end
$var wire 1 / mem_write $end
$var wire 32 ~" wdata [31:0] $end
$var wire 3 !# funct3 [2:0] $end
$var wire 12 "# a [11:0] $end
$var parameter 32 ## MEM_BYTES $end
$var reg 32 $# rdata [31:0] $end
$var integer 32 %# i [31:0] $end
$upscope $end
$scope module u_ex_mem $end
$var wire 1 % clk $end
$var wire 32 &# ex_alu_result [31:0] $end
$var wire 1 '# ex_branch_taken $end
$var wire 32 (# ex_branch_target [31:0] $end
$var wire 1 3 ex_jump $end
$var wire 32 )# ex_rs2_data [31:0] $end
$var wire 1 +" ex_zero $end
$var wire 1 & rst_n $end
$var wire 1 v ex_reg_write $end
$var wire 5 *# ex_rd [4:0] $end
$var wire 32 +# ex_pc_plus4 [31:0] $end
$var wire 1 { ex_mem_write $end
$var wire 2 ,# ex_mem_to_reg [1:0] $end
$var wire 1 } ex_mem_read $end
$var wire 3 -# ex_funct3 [2:0] $end
$var wire 1 *" ex_branch $end
$var reg 32 .# mem_alu_result [31:0] $end
$var reg 1 Q mem_branch $end
$var reg 1 P mem_branch_taken $end
$var reg 32 /# mem_branch_target [31:0] $end
$var reg 3 0# mem_funct3 [2:0] $end
$var reg 1 K mem_jump $end
$var reg 1 J mem_mem_read $end
$var reg 2 1# mem_mem_to_reg [1:0] $end
$var reg 1 H mem_mem_write $end
$var reg 32 2# mem_pc_plus4 [31:0] $end
$var reg 5 3# mem_rd [4:0] $end
$var reg 1 D mem_reg_write $end
$var reg 32 4# mem_rs2_data [31:0] $end
$var reg 1 B mem_zero $end
$upscope $end
$scope module u_fwd $end
$var wire 5 5# ex_mem_rd [4:0] $end
$var wire 1 D ex_mem_reg_write $end
$var wire 1 8 mem_wb_reg_write $end
$var wire 5 6# mem_wb_rd [4:0] $end
$var wire 5 7# id_ex_rs2 [4:0] $end
$var wire 5 8# id_ex_rs1 [4:0] $end
$var reg 2 9# forward_a [1:0] $end
$var reg 2 :# forward_b [1:0] $end
$upscope $end
$scope module u_gpio $end
$var wire 4 ;# addr [3:0] $end
$var wire 1 % clk $end
$var wire 16 <# gpio_in [15:0] $end
$var wire 1 & rst_n $end
$var wire 32 =# wdata [31:0] $end
$var wire 1 ># we $end
$var reg 16 ?# gpio_out [15:0] $end
$var reg 32 @# rdata [31:0] $end
$upscope $end
$scope module u_hazard $end
$var wire 1 P branch_taken $end
$var wire 5 A# if_id_rs1 [4:0] $end
$var wire 5 B# if_id_rs2 [4:0] $end
$var wire 1 K jump $end
$var wire 1 C# load_use_hazard $end
$var wire 5 D# id_ex_rd [4:0] $end
$var wire 1 } id_ex_mem_read $end
$var reg 1 i id_ex_bubble $end
$var reg 1 h id_ex_flush $end
$var reg 1 U if_id_flush $end
$var reg 1 T if_id_stall $end
$var reg 1 @ pc_stall $end
$upscope $end
$scope module u_id_ex $end
$var wire 1 % clk $end
$var wire 1 E# flush $end
$var wire 2 F# id_alu_op [1:0] $end
$var wire 1 k id_alu_src $end
$var wire 1 j id_branch $end
$var wire 3 G# id_funct3 [2:0] $end
$var wire 7 H# id_funct7 [6:0] $end
$var wire 1 c id_jalr $end
$var wire 1 b id_jump $end
$var wire 1 a id_mem_read $end
$var wire 2 I# id_mem_to_reg [1:0] $end
$var wire 1 _ id_mem_write $end
$var wire 7 J# id_opcode [6:0] $end
$var wire 5 K# id_rd [4:0] $end
$var wire 1 Z id_reg_write $end
$var wire 5 L# id_rs1 [4:0] $end
$var wire 5 M# id_rs2 [4:0] $end
$var wire 1 & rst_n $end
$var wire 32 N# id_rs2_data [31:0] $end
$var wire 32 O# id_rs1_data [31:0] $end
$var wire 32 P# id_pc_plus4 [31:0] $end
$var wire 32 Q# id_pc [31:0] $end
$var wire 32 R# id_imm [31:0] $end
$var reg 2 S# ex_alu_op [1:0] $end
$var reg 1 ," ex_alu_src $end
$var reg 1 *" ex_branch $end
$var reg 3 T# ex_funct3 [2:0] $end
$var reg 7 U# ex_funct7 [6:0] $end
$var reg 32 V# ex_imm [31:0] $end
$var reg 1 !" ex_jalr $end
$var reg 1 ~ ex_jump $end
$var reg 1 } ex_mem_read $end
$var reg 2 W# ex_mem_to_reg [1:0] $end
$var reg 1 { ex_mem_write $end
$var reg 7 X# ex_opcode [6:0] $end
$var reg 32 Y# ex_pc [31:0] $end
$var reg 32 Z# ex_pc_plus4 [31:0] $end
$var reg 5 [# ex_rd [4:0] $end
$var reg 1 v ex_reg_write $end
$var reg 5 \# ex_rs1 [4:0] $end
$var reg 32 ]# ex_rs1_data [31:0] $end
$var reg 5 ^# ex_rs2 [4:0] $end
$var reg 32 _# ex_rs2_data [31:0] $end
$upscope $end
$scope module u_if_id $end
$var wire 1 % clk $end
$var wire 1 U flush $end
$var wire 32 `# if_pc [31:0] $end
$var wire 32 a# if_pc_plus4 [31:0] $end
$var wire 1 & rst_n $end
$var wire 1 T stall $end
$var wire 32 b# if_instr [31:0] $end
$var reg 32 c# id_instr [31:0] $end
$var reg 32 d# id_pc [31:0] $end
$var reg 32 e# id_pc_plus4 [31:0] $end
$upscope $end
$scope module u_imem $end
$var wire 32 f# addr [31:0] $end
$var wire 32 g# instr [31:0] $end
$var parameter 144 h# HEX_FILE $end
$var parameter 32 i# MEM_SIZE $end
$var integer 32 j# i [31:0] $end
$upscope $end
$scope module u_immgen $end
$var wire 32 k# instr [31:0] $end
$var wire 7 l# opcode [6:0] $end
$var parameter 7 m# OP_AUIPC $end
$var parameter 7 n# OP_BRANCH $end
$var parameter 7 o# OP_I_ARITH $end
$var parameter 7 p# OP_JAL $end
$var parameter 7 q# OP_JALR $end
$var parameter 7 r# OP_LOAD $end
$var parameter 7 s# OP_LUI $end
$var parameter 7 t# OP_STORE $end
$var reg 32 u# imm [31:0] $end
$upscope $end
$scope module u_mem_wb $end
$var wire 1 % clk $end
$var wire 32 v# mem_alu_result [31:0] $end
$var wire 2 w# mem_mem_to_reg [1:0] $end
$var wire 32 x# mem_pc_plus4 [31:0] $end
$var wire 5 y# mem_rd [4:0] $end
$var wire 32 z# mem_read_data [31:0] $end
$var wire 1 D mem_reg_write $end
$var wire 1 & rst_n $end
$var reg 32 {# wb_alu_result [31:0] $end
$var reg 2 |# wb_mem_to_reg [1:0] $end
$var reg 32 }# wb_pc_plus4 [31:0] $end
$var reg 5 ~# wb_rd [4:0] $end
$var reg 32 !$ wb_read_data [31:0] $end
$var reg 1 8 wb_reg_write $end
$upscope $end
$scope module u_regfile $end
$var wire 1 % clk $end
$var wire 5 "$ rd [4:0] $end
$var wire 32 #$ rd_data [31:0] $end
$var wire 1 8 reg_write $end
$var wire 5 $$ rs1 [4:0] $end
$var wire 5 %$ rs2 [4:0] $end
$var wire 1 & rst_n $end
$var wire 32 &$ rs2_data [31:0] $end
$var wire 32 '$ rs1_data [31:0] $end
$var integer 32 ($ i [31:0] $end
$upscope $end
$scope module u_uart $end
$var wire 1 % clk $end
$var wire 1 & rst_n $end
$var wire 8 )$ tx_data [7:0] $end
$var wire 1 6 tx_valid $end
$var parameter 32 *$ CLKS_PER_BIT $end
$var parameter 2 +$ ST_DATA $end
$var parameter 2 ,$ ST_IDLE $end
$var parameter 2 -$ ST_START $end
$var parameter 2 .$ ST_STOP $end
$var reg 3 /$ bit_idx [2:0] $end
$var reg 32 0$ clk_cnt [31:0] $end
$var reg 8 1$ shift_reg [7:0] $end
$var reg 2 2$ state [1:0] $end
$var reg 1 ! tx $end
$var reg 1 3$ tx_done $end
$var reg 1 > tx_ready $end
$upscope $end
$upscope $end
$scope task check_mem $end
$var reg 32 4$ actual [31:0] $end
$var reg 12 5$ byte_addr [11:0] $end
$var reg 32 6$ expected [31:0] $end
$var reg 32 7$ test_id [31:0] $end
$upscope $end
$scope task check_reg $end
$var reg 32 8$ actual [31:0] $end
$var reg 32 9$ expected [31:0] $end
$var reg 5 :$ reg_addr [4:0] $end
$var reg 32 ;$ test_id [31:0] $end
$upscope $end
$upscope $end
$enddefinitions $end
$comment Show the parameter values. $end
$dumpall
b11 .$
b1 -$
b0 ,$
b10 +$
b100 *$
b100011 t#
b110111 s#
b11 r#
b1100111 q#
b1101111 p#
b10011 o#
b1100011 n#
b10111 m#
b10000000000 i#
b11101000110001000101111011101000110001001011111011000110111000001110101010111110111000001110010011011110110011100101110011010000110010101111000 h#
b1000000000000 ##
b100011 r"
b110011 q"
b110111 p"
b11 o"
b1100111 n"
b1101111 m"
b10011 l"
b1100011 k"
b10111 j"
b10 g"
b1 f"
b11 e"
b0 d"
b10000 c"
b110011 ]"
b100 \"
b1 ["
b110 Z"
b111 Y"
b1001 X"
b1000 W"
b101 V"
b1010 U"
b11 T"
b1011 S"
b10 R"
b0 Q"
b100 I"
b1 H"
b110 G"
b111 F"
b1001 E"
b1000 D"
b101 C"
b1010 B"
b11 A"
b1011 @"
b10 ?"
b0 >"
b100 5"
b11101000110001000101111011101000110001001011111011000110111000001110101010111110111000001110010011011110110011100101110011010000110010101111000 4"
$end
#0
$dumpvars
bx ;$
bx :$
bx 9$
bx 8$
bx 7$
bx 6$
bx 5$
bx 4$
03$
b0 2$
b0 1$
b0 0$
b0 /$
b0 )$
b100000 ($
b0 '$
b0 &$
b0 %$
b0 $$
b0 #$
b0 "$
b0 !$
b0 ~#
b0 }#
b0 |#
b0 {#
b0 z#
b0 y#
b0 x#
b0 w#
b0 v#
b0 u#
b10011 l#
b10011 k#
b10000000000 j#
b10100000000000010010011 g#
b0 f#
b0 e#
b0 d#
b10011 c#
b10100000000000010010011 b#
b100 a#
b0 `#
b0 _#
b0 ^#
b0 ]#
b0 \#
b0 [#
b0 Z#
b0 Y#
b0 X#
b0 W#
b0 V#
b0 U#
b0 T#
b0 S#
b0 R#
b0 Q#
b0 P#
b0 O#
b0 N#
b0 M#
b0 L#
b0 K#
b10011 J#
b0 I#
b0 H#
b0 G#
b10 F#
0E#
b0 D#
0C#
b0 B#
b0 A#
b0 @#
b0 ?#
0>#
b0 =#
b0 <#
b0 ;#
b0 :#
b0 9#
b0 8#
b0 7#
b0 6#
b0 5#
b0 4#
b0 3#
b0 2#
b0 1#
b0 0#
b0 /#
b0 .#
b0 -#
b0 ,#
b0 +#
b0 *#
b0 )#
b0 (#
0'#
b0 &#
b1000000000000 %#
b0 $#
b0 "#
b0 !#
b0 ~"
0}"
b0 |"
b100000 {"
b0 z"
b0 y"
b0 x"
b0 w"
b1010 v"
b0 u"
b0 t"
b10 s"
b10011 i"
b10000 h"
b0 b"
b0 a"
b0 `"
b0 _"
b0 ^"
b0 P"
b0 O"
b0 N"
0M"
b0 L"
0K"
0J"
b0 ="
b0 <"
0;"
b0 :"
b0 9"
b0 8"
b0 7"
16"
03"
b0 2"
b0 1"
b0 0"
b0 /"
b0 ."
b0 -"
0,"
1+"
0*"
b0 )"
b0 ("
b0 '"
b0 &"
b0 %"
b0 $"
0#"
0""
0!"
0~
0}
b0 |
0{
b0 z
b0 y
b0 x
b0 w
0v
b0 u
b0 t
b0 s
b0 r
b0 q
b0 p
b0 o
b0 n
b0 m
b10 l
1k
0j
0i
0h
b0 g
b0 f
b0 e
b10011 d
0c
0b
0a
b0 `
0_
b10011 ^
b0 ]
b0 \
b0 [
1Z
b0 Y
b0 X
b0 W
b0 V
0U
0T
b10100000000000010010011 S
b0 R
0Q
0P
b0 O
b0 N
0M
0L
0K
0J
b0 I
0H
b0 G
b0 F
b0 E
0D
b0 C
0B
b100 A
0@
b0 ?
1>
b0 =
b0 <
b0 ;
b0 :
b0 9
08
b0 7
06
15
b0 4
03
b0 2
01
b0 0
0/
b0 .
b0 -
b0 ,
b0 +
0*
b0 )
b0 (
b0 '
0&
0%
b0 $
b0 #
b0 "
1!
$end
#5000
b100000 {"
b10000 h"
b100000 ($
b1 '
1%
#10000
0%
#12000
1&
#15000
b101 e
b101 R#
b101 u#
b1 [
b1 K#
b101 W
b101 B#
b101 M#
b101 %$
b1 a"
b1100000000000100010011 S
b1100000000000100010011 b#
b1100000000000100010011 g#
b10100000000000010010011 d
b10100000000000010010011 c#
b10100000000000010010011 k#
b100 \
b100 P#
b100 e#
b10 ."
b10 P"
b10 S#
1,"
1v
b10011 z
b10011 N"
b10011 X#
1B
b1000 A
b1000 a#
b100 $
b100 ,
b100 7"
b100 _"
b100 `#
b100 f#
b10 '
1%
#20000
0%
#25000
0+"
b101 -"
b101 L"
b101 &#
b10 a"
b1000001000000110110011 S
b1000001000000110110011 b#
b1000001000000110110011 g#
b100 2
b101 (#
b101 :"
b111111111111111111111111111111011 <"
b101 0
b101 9"
b101 0"
b11 e
b11 R#
b11 u#
b10 [
b10 K#
b11 W
b11 B#
b11 M#
b11 %$
b1100 A
b1100 a#
b1000 $
b1000 ,
b1000 7"
b1000 _"
b1000 `#
b1000 f#
1D
b1 w
b1 *#
b1 D#
b1 [#
b101 s
b101 7#
b101 ^#
b101 )"
b101 $"
b101 V#
b100 x
b100 +#
b100 Z#
b1100000000000100010011 d
b1100000000000100010011 c#
b1100000000000100010011 k#
b1000 \
b1000 P#
b1000 e#
b100 ]
b100 Q#
b100 d#
b11 '
1%
#30000
0%
#35000
b10 l
b10 s"
b10 F#
0k
1Z
b11 -"
b11 L"
b11 &#
b0 e
b0 R#
b0 u#
b110011 l#
b11 [
b11 K#
b10 W
b10 B#
b10 M#
b10 %$
b1 Y
b1 A#
b1 L#
b1 $$
b110011 ^
b110011 i"
b110011 J#
b10 2
b11 :"
b111111111111111111111111111111101 <"
b11 0
b11 9"
b11 0"
b1 `"
b111 (#
b101 ;#
b101 "#
b11 a"
b110010000000000001000010011 S
b110010000000000001000010011 b#
b110010000000000001000010011 g#
b1000001000000110110011 d
b1000001000000110110011 c#
b1000001000000110110011 k#
b1100 \
b1100 P#
b1100 e#
b1000 ]
b1000 Q#
b1000 d#
b10 w
b10 *#
b10 D#
b10 [#
b11 s
b11 7#
b11 ^#
b11 $"
b11 V#
b1000 x
b1000 +#
b1000 Z#
b111 )"
b100 y
b100 b"
b100 Y#
0B
b1 F
b1 3#
b1 5#
b1 y#
b101 .
b101 |"
b101 R
b101 .#
b101 v#
b101 +
b101 O
b101 /#
b100 G
b100 2#
b100 x#
18
b10000 A
b10000 a#
b1100 $
b1100 ,
b1100 7"
b1100 _"
b1100 `#
b1100 f#
b100 '
1%
#40000
0%
#45000
b101 1"
b101 8"
b101 &"
06"
b101 7
b101 u"
b101 #$
b11 %"
b11 )#
0+"
b1000 -"
b1000 L"
b1000 &#
1k
b10 l
b10 s"
b10 F#
1Z
b100 a"
b1100100010000000100011 S
b1100100010000000100011 b#
b1100100010000000100011 g#
b11 ;#
b11 "#
b10 o
b10 :#
b1 p
b1 9#
b100 2
b1000 :"
b10 <"
b11 0
b11 9"
b11 0"
b10 `"
b1000 (#
b1100100 e
b1100100 R#
b1100100 u#
b10011 l#
b11 f
b11 H#
b100 [
b100 K#
b100 W
b100 B#
b100 M#
b100 %$
b0 Y
b0 A#
b0 L#
b0 $$
b10011 ^
b10011 i"
b10011 J#
b10100 A
b10100 a#
b10000 $
b10000 ,
b10000 7"
b10000 _"
b10000 `#
b10000 f#
b1 :
b1 z"
b1 6#
b1 ~#
b1 "$
b101 =
b101 {#
b100 ;
b100 }#
b10 F
b10 3#
b10 5#
b10 y#
b11 .
b11 |"
b11 R
b11 .#
b11 v#
b111 +
b111 O
b111 /#
b1000 G
b1000 2#
b1000 x#
0,"
b110011 z
b110011 N"
b110011 X#
b11 w
b11 *#
b11 D#
b11 [#
b10 s
b10 7#
b10 ^#
b1 u
b1 8#
b1 \#
b0 $"
b0 V#
b1100 x
b1100 +#
b1100 Z#
b1000 )"
b1000 y
b1000 b"
b1000 Y#
b110010000000000001000010011 d
b110010000000000001000010011 c#
b110010000000000001000010011 k#
b10000 \
b10000 P#
b10000 e#
b1100 ]
b1100 Q#
b1100 d#
b101 '
1%
#50000
0%
#55000
b0 1"
b0 8"
16"
b0 &"
1_
b0 l
b0 s"
b0 F#
1k
0Z
b1100100 -"
b1100100 L"
b1100100 &#
b11 7
b11 u"
b11 #$
b0 e
b0 R#
b0 u#
b100011 l#
b0 f
b0 H#
b10 g
b10 G#
b0 [
b0 K#
b11 W
b11 B#
b11 M#
b11 %$
b100 Y
b100 A#
b100 L#
b100 $$
b100011 ^
b100011 i"
b100011 J#
b1100100 :"
b111111111111111111111111110011100 <"
b1100100 0
b1100100 9"
b1100100 0"
b1100100 2
b11 `"
b1110000 (#
b11 )$
b1000 ;#
b0 %"
b0 )#
b1000 "#
b0 o
b0 :#
b0 p
b0 9#
b101 a"
b100010001010000011 S
b100010001010000011 b#
b100010001010000011 g#
b1100100010000000100011 d
b1100100010000000100011 c#
b1100100010000000100011 k#
b10100 \
b10100 P#
b10100 e#
b10000 ]
b10000 Q#
b10000 d#
1,"
b10011 z
b10011 N"
b10011 X#
b11 '"
b11 U#
b100 w
b100 *#
b100 D#
b100 [#
b100 s
b100 7#
b100 ^#
b0 u
b0 8#
b0 \#
b1100100 $"
b1100100 V#
b10000 x
b10000 +#
b10000 Z#
b1110000 )"
b1100 y
b1100 b"
b1100 Y#
b11 F
b11 3#
b11 5#
b11 y#
b11 C
b11 ~"
b11 4#
b11 =#
b1000 .
b1000 |"
b1000 R
b1000 .#
b1000 v#
b1000 +
b1000 O
b1000 /#
b1100 G
b1100 2#
b1100 x#
b10 :
b10 z"
b10 6#
b10 ~#
b10 "$
b11 =
b11 {#
b1000 ;
b1000 }#
b11000 A
b11000 a#
b10100 $
b10100 ,
b10100 7"
b10100 _"
b10100 `#
b10100 f#
b110 '
1%
#60000
0%
#65000
b1000 %"
b1000 )#
b1100100 1"
b1100100 8"
b1000 7
b1000 u"
b1000 #$
b1100100 &"
0+"
b1100100 -"
b1100100 L"
b1100100 &#
b1 `
b1 t"
b1 I#
1a
1Z
1k
0_
b110 a"
b10011 S
b10011 b#
b10011 g#
b0 )$
b100 ;#
b1100100 "#
06"
b1 o
b1 :#
b10 p
b10 9#
b1100100 2
b1100100 :"
b1100100 <"
b0 0
b0 9"
b0 0"
b100 `"
b10000 (#
b11 l#
b101 [
b101 K#
b0 W
b0 B#
b0 M#
b0 %$
b11 ^
b11 i"
b11 J#
b11100 A
b11100 a#
b11000 $
b11000 ,
b11000 7"
b11000 _"
b11000 `#
b11000 f#
b11 :
b11 z"
b11 6#
b11 ~#
b11 "$
b1000 =
b1000 {#
b1100 ;
b1100 }#
b100 F
b100 3#
b100 5#
b100 y#
b0 C
b0 ~"
b0 4#
b0 =#
b1100100 .
b1100100 |"
b1100100 R
b1100100 .#
b1100100 v#
b1110000 +
b1110000 O
b1110000 /#
b10000 G
b10000 2#
b10000 x#
b0 ."
b0 P"
b0 S#
1{
0v
b100011 z
b100011 N"
b100011 X#
b0 '"
b0 U#
b10 ("
b10 O"
b10 -#
b10 T#
b0 w
b0 *#
b0 D#
b0 [#
b11 s
b11 7#
b11 ^#
b100 u
b100 8#
b100 \#
b0 $"
b0 V#
b10100 x
b10100 +#
b10100 Z#
b10000 )"
b10000 y
b10000 b"
b10000 Y#
b100010001010000011 d
b100010001010000011 c#
b100010001010000011 k#
b11000 \
b11000 P#
b11000 e#
b10100 ]
b10100 Q#
b10100 d#
b111 '
1%
#70000
0%
#75000
0+"
b1100100 -"
b1100100 L"
b1100100 &#
b0 %"
b0 )#
b1100100 :"
b1100100 <"
b1100100 1"
b1100100 8"
b1100100 2
b10 l
b10 s"
b10 F#
1k
b0 `
b0 t"
b0 I#
0a
1Z
b1100100 &"
b1100100 7
b1100100 u"
b1100100 #$
b10011 l#
b0 g
b0 G#
b0 [
b0 K#
b0 Y
b0 A#
b0 L#
b0 $$
b10011 ^
b10011 i"
b10011 J#
b101 `"
b10100 (#
1/
b1000 )$
b0 o
b0 :#
b1 p
b1 9#
b111 a"
b10011 d
b10011 c#
b10011 k#
b11100 \
b11100 P#
b11100 e#
b11000 ]
b11000 Q#
b11000 d#
b1 |
b1 ,#
b1 W#
0{
1}
1v
b11 z
b11 N"
b11 X#
b101 w
b101 *#
b101 D#
b101 [#
b0 s
b0 7#
b0 ^#
b11000 x
b11000 +#
b11000 Z#
b10100 )"
b10100 y
b10100 b"
b10100 Y#
1H
0D
b10 N
b10 !#
b10 0#
b0 F
b0 3#
b0 5#
b0 y#
b1000 C
b1000 ~"
b1000 4#
b1000 =#
b10000 +
b10000 O
b10000 /#
b10100 G
b10100 2#
b10100 x#
b100 :
b100 z"
b100 6#
b100 ~#
b100 "$
b1100100 =
b1100100 {#
b10000 ;
b10000 }#
b100000 A
b100000 a#
b11100 $
b11100 ,
b11100 7"
b11100 _"
b11100 `#
b11100 f#
b1000 '
1%
#80000
0%
